[
    {
        "id": 1,
        "image": "assets/banner/banner1.jpg",
        "title": "Qabayan",
        "subtitle": "tempat jual dan beli sayuran dengan harga dan penawaran terbaik."
    },
    {
        "id": 2,
        "image": "assets/banner/banner1.jpg",
        "title": "Nego",
        "subtitle": "tawar menawar sayuran hingga mencapai harga terbaik."
    },
    {
        "id": 3,
        "image": "assets/banner/banner1.jpg",
        "title": "Ngobrol",
        "subtitle": "langsung tanyakan kualitas dan kondisi sayuran yang sedang dijual."
    },
    {
        "id": 4,
        "image": "assets/banner/banner1.jpg",
        "title": "Tawarkan",
        "subtitle": "tawarkan sayuran terbaik kamu langsung kepada pembeli."
    }
]