[
    {
        "id": 1,
        "image": "assets/post/2.jpg",
        "title": "Cabai Rawit",
        "totalItem": "10"
    },
    {
        "id": 2,
        "image": "assets/post/2.jpg",
        "title": "Brokoli",
        "totalItem": "15"
    },
    {
        "id": 3,
        "image": "assets/post/2.jpg",
        "title": "Terong Ungu",
        "totalItem": "12"
    },
    {
        "id": 4,
        "image": "assets/post/2.jpg",
        "title": "Pecay",
        "totalItem": "17"
    },
    {
        "id": 5,
        "image": "assets/post/2.jpg",
        "title": "Buncis",
        "totalItem": "45"
    },
    {
        "id": 6,
        "image": "assets/post/2.jpg",
        "title": "Tomat",
        "totalItem": "10"
    },
    {
        "id": 7,
        "image": "assets/post/2.jpg",
        "title": "Kentang",
        "totalItem": "30"
    },
    {
        "id": 8,
        "image": "assets/post/2.jpg",
        "title": "Jeruk Nipis",
        "totalItem": "23"
    },
    {
        "id": 9,
        "image": "assets/post/2.jpg",
        "title": "Kol",
        "totalItem": "12"
    },
    {
        "id": 10,
        "image": "assets/post/2.jpg",
        "title": "Lobak",
        "totalItem": "5"
    },
    {
        "id": 11,
        "image": "assets/post/2.jpg",
        "title": "Tomat Cherry",
        "totalItem": "3"
    },
    {
        "id": 12,
        "image": "assets/post/2.jpg",
        "title": "Saledri",
        "totalItem": "2"
    }
]